module modernc.org/goyacc

go 1.19

require (
	modernc.org/mathutil v1.5.0
	modernc.org/parser v1.0.7
	modernc.org/sortutil v1.1.1
	modernc.org/strutil v1.1.3
	modernc.org/y v1.0.9
)

require (
	github.com/remyoudompheng/bigfft v0.0.0-20200410134404-eec4a21b6bb0 // indirect
	modernc.org/golex v1.0.5 // indirect
)
